Merging Service Delivery Point Data to Household & Female Records
…
library(tidyverse)
library(ipumsr)

See our post about getting started with R for help with R package installation.

Load your data extract with read_ipums_micro making sure to change the file paths and extract numbers shown below to match your own:

sdp <- ipumsr::read_ipums_micro(
  ddi = "data/pma_00008.xml",
  data = "data/pma_00008.dat.gz"
)

sdp

# A tibble: 234 x 75
        SAMPLE COUNTRY  YEAR ROUND  EAID FACILITYID CONSENTSQ
     <int+lbl> <int+l> <int> <dbl> <dbl>  <int+lbl> <int+lbl>
 1 85405 [Bur 1 [Bur  2017     5  7142       7250   1 [Yes]
 2 85405 [Bur 1 [Bur  2017     5  7879       7399   1 [Yes]
 3 85405 [Bur 1 [Bur  2017     5  7483       7506   1 [Yes]
 4 85405 [Bur 1 [Bur  2017     5  7185       7982   1 [Yes]
 5 85405 [Bur 1 [Bur  2017     5  7859       7065   1 [Yes]
 6 85405 [Bur 1 [Bur  2017     5  7082       7729   1 [Yes]
 7 85405 [Bur 1 [Bur  2017     5  7650       7490   1 [Yes]
 8 85405 [Bur 1 [Bur  2017     5  7955       7311   1 [Yes]
 9 85405 [Bur 1 [Bur  2017     5  7323       7524   1 [Yes]
10 85405 [Bur 1 [Bur  2017     5  7774       7932   1 [Yes]
11 85405 [Bur 1 [Bur  2017     5  7339       7553   1 [Yes]
12 85405 [Bur 1 [Bur  2017     5  7620       7371   1 [Yes]
13 85405 [Bur 1 [Bur  2017     5  7791       7530   1 [Yes]
14 85405 [Bur 1 [Bur  2017     5  7708       7574   1 [Yes]
15 85405 [Bur 1 [Bur  2017     5  7621       7882   1 [Yes]
#  with 219 more rows, and 68 more variables: STRATA <int+lbl>,
#   EASERVED1 <int+lbl>, EASERVED2 <int+lbl>, EASERVED3 <int+lbl>,
#   EASERVED4 <int+lbl>, 
…
sdp <- sdp %>%
  pivot_longer(
    cols = starts_with("EASERVED"),
    values_to = "EASERVED",
    values_drop_na = T,
    names_to = NULL
  ) %>%
  distinct() # in case any facility listed the same EASERVED twice

Dropping each row where EASERVED is missing, were left with 372 rows where information about each SDP gets repeated once for every enumeration area that it serves. (Remember: our original dataset contained only 234 rows because SDPs occupied just one row apiece).

sdp %>% select(FACILITYID, EAID, EASERVED, everything())

# A tibble: 372 x 58
   FACILITYID  EAID EASERVED      SAMPLE COUNTRY  YEAR ROUND CONSENTSQ
    <int+lbl> <dbl> <dbl+lb>   <int+lbl> <int+l> <int> <dbl> <int+lbl>
 1       7250  7142     7380 85405 [Bur 1 [Bur  2017     5   1 [Yes]
 2       7250  7142     7323 85405 [Bur 1 [Bur  2017     5   1 [Yes]
 3       7250  7142     7491 85405 [Bur 1 [Bur  2017     5   1 [Yes]
 4       7250  7142     7605 85405 [Bur 1 [Bur  2017     5   1 [Yes]
 5       7250  7142     7142 85405 [Bur 1 [Bur  2017     5   1 [Yes]
 6       7250  7142     7279 85405 [Bur 1 [Bur  2017     5   1 [Yes]
 7       7250  7142     7370 85405 [Bur 1 [Bur  2017     5   1 [Yes]
 8       7250  7142     7725 85405 [Bur 1 [Bur  2017     5   1 [Yes]
 9       7250  7142     7811 85405 [Bur 1 [Bur  2017     5   1 [Yes]
10       7250  7142     7859 85405 [Bur 1 [Bur  2017     5   1 [Yes]
11       7250  7142     7472 85405 [Bur 1 [Bur  2017     5   1 [Yes]
12       7250  7142     7175 85405 [Bur 1 [Bur  2017     5   1 [Yes]
13       7250  7142     7234 85405 [Bur 1 [Bur  2017     5   1 [Yes]
14       7250  7142     7799 85405 [Bur 1 [Bur  2017     5   1 [Yes]
15       7250  7142     7909 85405 [Bur 1 [Bur  2017     5   1 [Yes]
#  with 357 more rows, and 50 more variables: STRATA <int+lbl>,
#   FACILITYTYPE <int+lbl>, FACILITYTYPEGEN <int+lbl>,
#   AUTHORITY <int+lbl>, CONPROV <int+lbl>, 

Summarise by EASERVED and YEAR

Now that weve finished recoding and reshaping the data, well create a few summary statistics describing the service environment in each enumeration area for each survey year.

Lets start by examining the availability of different family planning methods. Using group_by(EASERVED, YEAR) and across we can test whether each method was normally available from at least one SDP serving each area in each year. Well use a glue specification to add the prefix ANY_ to each PROV variable (for example, CONPROV will be summarized as ANY_CONPROV, because it indicates whether any facility serving the EA provides male condoms).

sdp %>% 
  group_by(EASERVED, YEAR) %>%
  summarise(
    .groups = "keep",
    across(ends_with("PROV"), ~any(.x == 1), .names = "ANY_{.col}")
  )

# A tibble: 149 x 15
# Groups:   EASERVED, YEAR [149]
   EASERVED  YEAR ANY_CONPROV ANY_CYCBPROV ANY_DEPOPROV ANY_DIAPROV
   <dbl+lb> <int> <lgl>       <lgl>        <lgl>        <lgl>      
 1     7003  2017 TRUE        TRUE         TRUE         FALSE      
 2     7003  2018 TRUE        TRUE         TRUE         FALSE      
 3     7006  2017 TRUE        TRUE         TRUE         FALSE      
 4     7006  2018 TRUE        TRUE         TRUE         FALSE      
 5     7009  2017 TRUE        TRUE         TRUE         FALSE      
 6     7009  2018 TRUE        TRUE         TRUE         FALSE      
 7     7016  2017 TRUE        TRUE         TRUE         FALSE      
 8     7016  2018 TRUE        TRUE         TRUE         FALSE      
 9     7026  2017 TRUE        TRUE         TRUE         FALSE      
10     7026  2018 TRUE        TRUE         TRUE         FALSE      
11     7042  2017 TRUE        TRUE         TRUE         FALSE      
12     7042  2018 TRUE        TRUE         TRUE         FALSE      
13     7048  2017 TRUE        TRUE         TRUE         FALSE      
14     7048  2018 TRUE        TRUE         TRUE         FALSE      
15     7056  2017 TRUE        TRUE         TRUE         FALSE      
#  with 134 more rows, and 9 more variables: ANY_EMRGPROV <lgl>,
#   ANY_FCPROV <lgl>, ANY_FSTPROV <lgl>, ANY_FJPROV <lgl>,
#   ANY_IMPPROV <lgl>, 

Suppose we only want to know the number of methods provided by at least one SDP in each enumeration area. Using the row-wise partner of dplyr::across, called dplyr::c_across, we can count the number of TRUE PROV variables in each row of the summary output.

sdp %>% 
  group_by(EASERVED, YEAR) %>%
  summarise(
    .groups = "keep",
    across(ends_with("PROV"), ~any(.x == 1), .names = "ANY_{.col}")
  ) %>% 
  transmute(NUM_METHODS_PROV = sum(c_across(ends_with("PROV")), na.rm = T))

# A tibble: 149 x 3
# Groups:   EASERVED, YEAR [149]
    EASERVED  YEAR NUM_METHODS_PROV
   <dbl+lbl> <int>            <int>
 1      7003  2017               10
 2      7003  2018                8
 3      7006  2017               10
 4      7006  2018                8
 5      7009  2017                9
 6      7009  2018               10
 7      7016  2017                9
 8      7016  2018                8
 9      7026  2017               10
10      7026  2018               10
11      7042  2017               11
12      7042  2018               10
13      7048  2017               11
14      7048  2018               11
15      7056  2017                8
#  with 134 more rows
…
    across(ends_with("PROV"), ~any(.x == 1), .names = "ANY_{.col}"),
    across(ends_with("OBS"), ~any(.x == 0), .names = "ANY_{.col}_OUT"),
    across(ends_with("OBS"), ~any(.x == 1), .names = "ANY_{.col}_INSTOCK"),
    across(ends_with("OUT3MO"), ~any(.x == 1), .names = "ANY_{.col}"),
    across(ends_with("OUTDAY"), ~mean(.x, na.rm = T), .names = "MEAN_{.col}")
  ) %>% 
  transmute(
    NUM_METHODS_PROV = sum(c_across(ends_with("PROV")), na.rm = T),
    NUM_METHODS_OUTSTOCK = sum(c_across(ends_with("OBS_OUT")), na.rm = T),
    NUM_METHODS_INSTOCK = sum(c_across(ends_with("OBS_INSTOCK")), na.rm = T),
    NUM_METHODS_OUT3MO = sum(c_across(ends_with("OUT3MO")), na.rm = T),
    MEAN_OUTDAY = mean(c_across(ends_with("OUTDAY")), na.rm = T)
  )

# A tibble: 149 x 7
# Groups:   EASERVED, YEAR [149]
   EASERVED  YEAR NUM_METHODS_PROV NUM_METHODS_OUT NUM_METHODS_INS
   <dbl+lb> <int>            <int>            <int>            <int>
 1     7003  2017               10                0                8
 2     7003  2018                8                0                8
 3     7006  2017               10                0                8
 4     7006  2018                8                0                8
 5     7009  2017                9                1                9
 6     7009  2018               10                1                9
 7     7016  2017                9                2                8
 8     7016  2018                8                0                8
 9     7026  2017               10                0                8
10     7026  2018               10                1                8
11     7042  2017               11                1                9
12     7042  2018               10                0                8
13     7048  2017               11                0                9
14     7048  2018               11                1                8
15     7056  2017                8                0                8
#  with 134 more rows, and 2 more variables:
#   NUM_METHODS_OUT3MO <int>, MEAN_OUTDAY <dbl>
…
sdp

# A tibble: 149 x 16
   EASERVED  YEAR N_SDP N_SDP_INT HOSPITAL HCENTER PHARM OTHER   GOV
   <dbl+lb> <int> <int>     <int>    <int>   <int> <int> <int> <int>
 1     7003  2017     3         3        2       1     0     0     3
 2     7003  2018     2         2        1       1     0     0     2
 3     7006  2017     2         2        1       1     0     0     2
 4     7006  2018     1         1        0       1     0     0     1
 5     7009  2017     3         3        2       1     0     0     3
 6     7009  2018     2         2        1       1     0     0     2
 7     7016  2017     3         3        2       1     0     0     3
 8     7016  2018     2         2        1       1     0     0     2
 9     7026  2017     3         3        1       2     0     0     3
10     7026  2018     3         3        1       2     0     0     3
11     7042  2017     3         3        2       1     0     0     3
12     7042  2018     2         2        1       1     0     0     2
13     7048  2017     2         2        2       0     0     0     2
14     7048  2018     2         2        2       0     0     0     2
15     7056  2017     2         2        1       1     0     0     2
#  with 134 more rows, and 7 more variables: FAITH <int>,
#   PRIV <int>, NUM_METHODS_OUT <int>, NUM_METHODS_INSTOCK <int>,
#   NUM_METHODS_PROV <int>, 
…
hhf

# A tibble: 6,944 x 5
   PERSONID                EAID  YEAR     URBAN FPCURRUSE
   <chr>                  <dbl> <int> <int+lbl> <int+lbl>
 1 0762000000029022017506  7620  2017 1 [Urban]  NA      
 2 0735800000017142017501  7358  2017 0 [Rural]   0 [No] 
 3 0710400000020992017502  7104  2017 0 [Rural]   0 [No] 
 4 0704800000014092017503  7048  2017 1 [Urban]   0 [No] 
 5 0715600000020782017502  7156  2017 0 [Rural]   0 [No] 
 6 0727900000021452017502  7279  2017 1 [Urban]   0 [No] 
 7 0743100000024642017502  7431  2017 0 [Rural]   1 [Yes]
 8 0721200000025792017502  7212  2017 0 [Rural]   0 [No] 
 9 0704200000014542017512  7042  2017 1 [Urban]   0 [No] 
10 0797200000013032017502  7972  2017 1 [Urban]   0 [No] 
11 0752100000016312017505  7521  2017 0 [Rural]   1 [Yes]
12 0740000000008122017506  7400  2017 0 [Rural]   1 [Yes]
13 0793400000007082017503  7934  2017 1 [Urban]   0 [No] 
14 0700900000009972017502  7009  2017 0 [Rural]   0 [No] 
15 0727900000014742017502  7279  2017 1 [Urban]   0 [No] 
#  with 6,929 more rows

To merge the SDP variables weve created, well use dplyr::right_join to ensure that all rows from hhf are preserved. In the process, well be attaching one row of the sdp data to each woman by matching her EAID to an EASERVED, and by matching her survey YEAR to an SDP survey YEAR.

bf_merged <- sdp %>% 
  rename(EAID = EASERVED) %>% 
  right_join(hhf, by = c("EAID", "YEAR"))

Now, each womans record contains all of the variables we created above summarizing the SDPs that serve her enumeration area. For example, for all women living in EAID == 7003 in YEAR == 2017, the value in NUM_METHODS_OUT3MO shows the number of family planning methods that were out of stock with any SDP serving the womans enumeration area within three months prior to the survey:

bf_merged %>% 
  filter(EAID == 7003, YEAR == 2017) %>% 
  select(PERSONID, EAID, YEAR, NUM_METHODS_OUT3MO)

# A tibble: 55 x 4
   PERSONID                    EAID  YEAR NUM_METHODS_OUT3MO
   <chr>                  <dbl+lbl> <int>              <int>
 1 0700300000019732017504      7003  2017                  0
 2 0700300000019732017503      7003  2017                  0
 3 0700300000026402017515      7003  2017                  0
 4 0700300000010752017502      7003  2017                  0
 5 0700300000016092017503      7003  2017                  0
 6 0700300000008352017508      7003  2017                  0
 7 0700300000012732017502      7003  2017                  0
 8 0700300000005272017507      7003  2017                  0
 9 0700300000025612017508      7003  2017                  0
10 0700300000023912017504      7003  2017                  0
11 0700300000018662017507      7003  2017                  0
12 0700300000025612017507      7003  2017                  0
13 0700300000009052017502      7003  2017                  0
14 0700300000008352017507      7003  2017                  0
15 0700300000000732017502      7003  2017                  0
#  with 40 more rows
…
