Data Analysis Hub: Mapping Service Delivery Point Data
…
library(ipumsr)
library(sf) # primary spatial package
library(GADMTools) # for downloading shapefiles
library(viridis) # for color palettes
library(tidyverse)

Load the SDP data and the GPS data from the data folder and check out what the GPS data contains:

load("data/sdp.Rdata") 

gps <- read_csv("data/PMA_BF_GPS_v1_24Jul2018.csv")
gps

# A tibble: 83 x 7
   PMACC PMAYEAR REGION               EA_ID GPSLONG GPSLAT DATUM
   <chr>   <dbl> <chr>                <dbl>   <dbl>  <dbl> <chr>
 1 BF       2017 5. centre-nord        7610  -1.07    12.9 WGS84
 2 BF       2017 1. boucle-du-mouhoun  7820  -4.07    12.7 WGS84
 3 BF       2017 3. centre             7271  -1.58    12.4 WGS84
 4 BF       2017 3. centre             7799  -1.54    12.4 WGS84
 5 BF       2017 8. est                7243   0.380   12.1 WGS84
 6 BF       2017 6. centre-ouest       7026  -2.37    12.3 WGS84
 7 BF       2017 3. centre             7859  -1.57    12.3 WGS84
 8 BF       2017 3. centre             7725  -1.55    12.3 WGS84
 9 BF       2017 6. centre-ouest       7390  -2.21    12.1 WGS84
10 BF       2017 11. plateau-central   7104  -1.91    12.8 WGS84
#  with 73 more rows
…
PMA follows the same displacement protocol as the Demographic and Health Surveys, for those familiar the the DHS spatial data.

gps <- gps %>%
    st_as_sf(
      coords = c("GPSLONG", "GPSLAT"), 
      crs = 4326) # 4326 is the coordinate reference system (CRS) identifier for WGS84
gps

Simple feature collection with 83 features and 5 fields
geometry type:  POINT
dimension:      XY
bbox:           xmin: -5.18865 ymin: 9.883331 xmax: 1.634087 ymax: 14.39679
geographic CRS: WGS 84
# A tibble: 83 x 6
   PMACC PMAYEAR REGION               EA_ID DATUM             geometry
 * <chr>   <dbl> <chr>                <dbl> <chr>          <POINT []>
 1 BF       2017 5. centre-nord        7610 WGS84 (-1.065238 12.93839)
 2 BF       2017 1. boucle-du-mouhoun  7820 WGS84 (-4.065366 12.72985)
 3 BF       2017 3. centre             7271 WGS84 (-1.583361 12.37884)
 4 BF       2017 3. centre             7799 WGS84 (-1.540024 12.40452)
 5 BF       2017 8. est                7243 WGS84 (0.3797186 12.07097)
 6 BF       2017 6. centre-ouest       7026 WGS84 (-2.366313 12.26087)
 7 BF       2017 3. centre             7859 WGS84 (-1.570808 12.33761)
 8 BF       2017 3. centre             7725 WGS84 (-1.552744 12.33411)
 9 BF       2017 6. centre-ouest       7390 WGS84 (-2.211783 12.09784)
10 BF       2017 11. plateau-central   7104 WGS84 (-1.909244 12.76427)
#  with 73 more rows
…
sdp <- right_join(gps, sdp, by = "EA_ID")

sdp # now the sdp data is an sf object

Simple feature collection with 149 features and 20 fields
geometry type:  POINT
dimension:      XY
bbox:           xmin: -5.18865 ymin: 9.883331 xmax: 1.634087 ymax: 14.39679
geographic CRS: WGS 84
# A tibble: 149 x 21
   PMACC PMAYEAR REGION EA_ID DATUM                  geometry  YEAR
   <chr>   <dbl> <chr>  <dbl> <chr>               <POINT []> <int>
 1 BF       2017 5. ce  7610 WGS84      (-1.065238 12.93839)  2017
 2 BF       2017 5. ce  7610 WGS84      (-1.065238 12.93839)  2018
 3 BF       2017 1. bo  7820 WGS84      (-4.065366 12.72985)  2017
 4 BF       2017 1. bo  7820 WGS84      (-4.065366 12.72985)  2018
 5 BF       2017 3. ce  7271 WGS84      (-1.583361 12.37884)  2017
 6 BF       2017 3. ce  7799 WGS84      (-1.540024 12.40452)  2017
 7 BF       2017 8. est  7243 WGS84      (0.3797186 12.07097)  2017
 8 BF       2017 8. est  7243 WGS84      (0.3797186 12.07097)  2018
 9 BF       2017 6. ce  7026 WGS84      (-2.366313 12.26087)  2017
10 BF       2017 6. ce  7026 WGS84      (-2.366313 12.26087)  2018
#  with 139 more rows, and 14 more variables: N_SDP <int>,
#   N_SDP_INT <int>, HOSPITAL <int>, HCENTER <int>, PHARM <int>, 
…
