Mapping Service Delivery Point Data
…
bf_ea <- bf_merged %>%
  dplyr::select(-PERSONID) %>%
  group_by(EAID, YEAR) %>%
  summarise_all(mean, na.rm = T) %>%
  filter(!is.na(N_SDP)) 

Remember, due to a sampling change between 2017 and 2018, there are 17 EAs with missing SDP data in 2018. See our Data Discovery post for more details.

Now, lets read in the GPS data from the data folder and see what the it contains. If you requested access to the actual GPS datasets, make sure to replace the bf_gps_fake.csv with the filename of the real data!

gps <- read_csv("data/bf_gps_fake.csv")
gps

# A tibble: 83 x 7
   PMACC PMAYEAR REGION               EA_ID DATUM GPSLAT  GPSLON
   <chr>   <dbl> <chr>                <dbl> <chr>  <dbl>   <dbl>
 1 BF       2017 5. centre-nord        7610 WGS84   14.2  0.126 
 2 BF       2017 1. boucle-du-mouhoun  7820 WGS84   13.5 -3.08  
 3 BF       2017 3. centre             7271 WGS84   12.2  1.43  
 4 BF       2017 3. centre             7799 WGS84   12.2 -0.799 
 5 BF       2017 8. est                7243 WGS84   11.0 -2.58  
 6 BF       2017 6. centre-ouest       7026 WGS84   10.9 -4.35  
 7 BF       2017 3. centre             7859 WGS84   12.4  0.0703
 8 BF       2017 3. centre             7725 WGS84   12.7  1.42  
 9 BF       2017 6. centre-ouest       7390 WGS84   10.8 -3.55  
10 BF       2017 11. plateau-central   7104 WGS84   13.3  0.0957
#  with 73 more rows
…
Note that the GPSLAT and GPSLONG are displaced coordinates of the EA centroid. This is because PMA randomly displaces the geographic coordinates to preserve the privacy of survey respondents. Coordinates are displaced randomly by both angle and distance. Urban EAs are displaced from their true location up to 2 km. Rural EAs are displaced from their true location up to 5 km. Additionally, a random sample of 1% of rural EAs are displaced up to 10km. The PMA GPS data come with documentation that explains the displacement in more detail. The primary spatial package well use is simple features or sf. Well use sf::st_as_sf() to convert the GPS data to a spatial data object (known as a simple feature collection).

gps <- gps %>%
    rename(EAID = EA_ID) %>% # rename to be consistent with other PMA data
    st_as_sf(
      coords = c("GPSLONG", "GPSLAT"), 
      crs = 4326) # 4326 is the coordinate reference system (CRS) identifier for WGS84
gps

Simple feature collection with 83 features and 5 fields
geometry type:  POINT
dimension:      XY
bbox:           xmin: -5.18865 ymin: 9.883331 xmax: 1.634087 ymax: 14.39679
geographic CRS: WGS 84
# A tibble: 83 x 6
   PMACC PMAYEAR REGION                EAID DATUM             geometry
 * <chr>   <dbl> <chr>                <dbl> <chr>          <POINT []>
 1 BF       2017 5. centre-nord        7610 WGS84 (-1.065238 12.93839)
 2 BF       2017 1. boucle-du-mouhoun  7820 WGS84 (-4.065366 12.72985)
 3 BF       2017 3. centre             7271 WGS84 (-1.583361 12.37884)
 4 BF       2017 3. centre             7799 WGS84 (-1.540024 12.40452)
 5 BF       2017 8. est                7243 WGS84 (0.3797186 12.07097)
 6 BF       2017 6. centre-ouest       7026 WGS84 (-2.366313 12.26087)
 7 BF       2017 3. centre             7859 WGS84 (-1.570808 12.33761)
 8 BF       2017 3. centre             7725 WGS84 (-1.552744 12.33411)
 9 BF       2017 6. centre-ouest       7390 WGS84 (-2.211783 12.09784)
10 BF       2017 11. plateau-central   7104 WGS84 (-1.909244 12.76427)
#  with 73 more rows
…
To map the EA-level variables constructed in the last post, we need to merge the bf_merged data and the gps data by EA_ID. First, lets rename the EASEARVED variable to match the GPS data and then use a dplyr::right_join to merge in the SDP data. We need to use a right_join() because the sf object must be listed first in our join command to retain the sf class, but we want to ensure that all rows from bf_merged are preserved.

Remember, the SDP data contains information from both 2017 and 2018, while the GPS data has a single observation per EA.

bf_ea <- right_join(gps, bf_ea, by = "EAID")

bf_ea # now the bf_ea data is an sf object

Simple feature collection with 149 features and 22 fields
geometry type:  POINT
dimension:      XY
bbox:           xmin: -5.18865 ymin: 9.883331 xmax: 1.634087 ymax: 14.39679
geographic CRS: WGS 84
# A tibble: 149 x 23
   PMACC PMAYEAR REGION  EAID DATUM                  geometry  YEAR
   <chr>   <dbl> <chr>  <dbl> <chr>               <POINT []> <int>
 1 BF       2017 5. ce  7610 WGS84      (-1.065238 12.93839)  2017
 2 BF       2017 5. ce  7610 WGS84      (-1.065238 12.93839)  2018
 3 BF       2017 1. bo  7820 WGS84      (-4.065366 12.72985)  2017
 4 BF       2017 1. bo  7820 WGS84      (-4.065366 12.72985)  2018
 5 BF       2017 3. ce  7271 WGS84      (-1.583361 12.37884)  2017
 6 BF       2017 3. ce  7799 WGS84      (-1.540024 12.40452)  2017
 7 BF       2017 8. est  7243 WGS84      (0.3797186 12.07097)  2017
 8 BF       2017 8. est  7243 WGS84      (0.3797186 12.07097)  2018
 9 BF       2017 6. ce  7026 WGS84      (-2.366313 12.26087)  2017
10 BF       2017 6. ce  7026 WGS84      (-2.366313 12.26087)  2018
#  with 139 more rows, and 16 more variables: N_SDP <dbl>,
#   N_SDP_INT <dbl>, HOSPITAL <dbl>, HCENTER <dbl>, PHARM <dbl>, 
…
